Place,Name,Sex,Event,BirthDate,Equipment,Division,BodyweightKg,WeightClassKg,Squat1Kg,Squat2Kg,Squat3Kg,Squat4Kg,Best3SquatKg,Bench1Kg,Bench2Kg,Bench3Kg,Bench4Kg,Best3BenchKg,Deadlift1Kg,Deadlift2Kg,Deadlift3Kg,Deadlift4Kg,Best3DeadliftKg,TotalKg,Country
2,Igor Domeracki,M,B,2009-12-07,Raw,M-T1R,54.15,56,,,,,,45,50,-52.5,,50,,,,,,50,Poland
1,Kyrylo Kotsaga,M,B,2010-07-21,Raw,M-T1R,59.8,60,,,,,,70,75,80,82.5,80,,,,,,80,Ukraine
1,Hubert Granietzny,M,B,2010-04-04,Raw,M-T1R,67,67.5,,,,,,60,65,70,,70,,,,,,70,Poland
2,Antoni Gałązka,M,B,2008-12-27,Raw,M-T1R,60.3,67.5,,,,,,60,65,-70,,65,,,,,,65,Poland
1,Alan Grasza,M,B,2008-06-06,Raw,M-T1R,79,82.5,,,,,,80,85,-90,,85,,,,,,85,Poland
1,Aleksander Demczuk,M,B,2008-08-25,Raw,M-T1R,83.7,90,,,,,,92.5,97.5,102.5,,102.5,,,,,,102.5,Poland
2,Daniel Rozwadowski,M,B,2009-01-26,Raw,M-T1R,88,90,,,,,,90,100,-110,,100,,,,,,100,Poland
3,Szymon Kudzia,M,B,2008-12-30,Raw,M-T1R,89.9,90,,,,,,-55,-55,55,,55,,,,,,55,Poland
1,Bartosz Kozakiewicz,M,B,2008-05-10,Raw,M-T1R,55.8,56,,,,,,65,70,-75,,70,,,,,,70,Poland
1,Gabriel Łukanowski,M,B,2006-11-08,Raw,M-T2R,65.4,67.5,,,,,,75,-80,-80,,75,,,,,,75,Poland
1,Szymon Tlock,M,B,2007-03-03,Raw,M-T2R,72.3,75,,,,,,107.5,-112.5,-112.5,,107.5,,,,,,107.5,Poland
1,Kacper Pieniak,M,B,2007-07-31,Raw,M-T2R,81,82.5,,,,,,110,115,-120,,115,,,,,,115,Poland
2,Jakub Swierkosz,M,B,2006-08-29,Raw,M-T2R,82.5,82.5,,,,,,100,105,110,,110,,,,,,110,Poland
1,Adrian Iwaniuk,M,B,2007-06-21,Raw,M-T2R,83.2,90,,,,,,135,140,145,,145,,,,,,145,Poland
1,Kacper Polko,M,B,2006-07-07,Raw,M-T2R,93.4,100,,,,,,100,105,-107.5,,105,,,,,,105,Poland
1,Kacper Kosiński,M,B,2006-12-13,Raw,M-T2R,101,110,,,,,,130,135,137.5,140,137.5,,,,,,137.5,Poland
1,Michał Karmel,M,B,2005-06-22,Raw,M-T3R,59.7,60,,,,,,70,-75,-75,,70,,,,,,70,Poland
1,Kacper Kozakiewicz,M,B,2005-11-24,Raw,M-T3R,73.8,75,,,,,,110,115,-117.5,,115,,,,,,115,Poland
1,Kacper Wawrzyniak,M,B,2004-12-17,Raw,M-T3R,85.1,90,,,,,,135,140,-147.5,,140,,,,,,140,Poland
1,Dominik Sarnowiak,M,B,2004-08-26,Raw,M-T3R,91,100,,,,,,-95,-95,95,,95,,,,,,95,Poland
1,Kacper Łukomski,M,B,2005-12-16,Raw,M-T3R,124.7,125,,,,,,120,125,130,,130,,,,,,130,Poland
1,Rafael Alfaro Alvarado,M,B,2003-02-13,Raw,M-JR,82.5,82.5,,,,,,-142.5,142.5,155,,155,,,,,,155,Poland
1,Kamil Ciszewski,M,B,2001-10-28,Raw,M-JR,88.3,90,,,,,,155,165,-172.5,,165,,,,,,165,Poland
1,Radosław Paździerski,M,B,2003-09-16,Raw,M-JR,93.2,100,,,,,,120,,,,120,,,,,,120,Poland
1,Hubert Bąbrych,M,B,2001-01-10,Raw,M-JR,107.4,110,,,,,,185,195,200.5,,200.5,,,,,,200.5,Poland
2,Kacper Grabowski,M,B,2003-01-28,Raw,M-JR,108.3,110,,,,,,150,155,157.5,,157.5,,,,,,157.5,Poland
1,Łukasz Wółkiewicz,M,B,1987-02-14,Raw,M-OR,75,75,,,,,,155,162.5,-165,,162.5,,,,,,162.5,Poland
1,Stanisław Gąsienica-Samek,M,B,1983-04-30,Raw,M-OR,82,82.5,,,,,,170,175,180,,180,,,,,,180,Poland
2,Konrad Oszczyk,M,B,1997-01-22,Raw,M-OR,82.2,82.5,,,,,,135,-142.5,-150,,135,,,,,,135,Poland
3,Roch Szumarowski-Plewa,M,B,1973-01-14,Raw,M-OR,80,82.5,,,,,,120,125,132.5,,132.5,,,,,,132.5,Poland
4,Kamil Gmurczyk,M,B,2000-02-07,Raw,M-OR,78.4,82.5,,,,,,130,-135,-135,,130,,,,,,130,Poland
5,Przemysław Kawczyński,M,B,1994-03-27,Raw,M-OR,81,82.5,,,,,,125,130,-132.5,,130,,,,,,130,Poland
1,Adam Kawka,M,B,1997-06-19,Raw,M-OR,83.9,90,,,,,,170,180,185,,185,,,,,,185,Poland
2,Kamil Ciszewski,M,B,2001-10-28,Raw,M-OR,88.3,90,,,,,,155,165,-172.5,,165,,,,,,165,Poland
1,Jakub Nolbrzak,M,B,1994-05-23,Raw,M-OR,99.5,100,,,,,,170,180,185,,185,,,,,,185,Poland
2,Andrzej Popowski,M,B,1995-11-05,Raw,M-OR,97.1,100,,,,,,172.5,177.5,-180,,177.5,,,,,,177.5,Poland
3,Piotr Wocka,M,B,1989-12-25,Raw,M-OR,92.2,100,,,,,,-165,165,170,,170,,,,,,170,Poland
4,Patryk Choluj,M,B,1999-03-21,Raw,M-OR,94.3,100,,,,,,160,167.5,-172.5,,167.5,,,,,,167.5,Poland
5,Łukasz Kantor,M,B,1994-12-13,Raw,M-OR,97.5,100,,,,,,130,140,142.5,,142.5,,,,,,142.5,Poland
6,Remiljusz Wroński,M,B,1992-10-25,Raw,M-OR,99.3,100,,,,,,130,140,-150,,140,,,,,,140,Poland
7,Konrad Czupryn,M,B,1989-03-15,Raw,M-OR,97.8,100,,,,,,125,130,135,,135,,,,,,135,Poland
DQ,Michał Perżyło,M,B,1999-05-13,Raw,M-OR,97.2,100,,,,,,-200,-200,-200,,,,,,,,,Poland
1,Arkadiusz Redzynia,M,B,1993-01-14,Raw,M-OR,109.4,110,,,,,,220,-230,230,,230,,,,,,230,Poland
2,Marcin Gołębiewski,M,B,1991-09-03,Raw,M-OR,109,110,,,,,,205,212.5,220,,220,,,,,,220,Poland
3,Tomasz Basa,M,B,1988-12-02,Raw,M-OR,105.2,110,,,,,,200,210,-212.5,,210,,,,,,210,Poland
4,Wojciech Dargacz,M,B,1991-08-26,Raw,M-OR,106.2,110,,,,,,175,-185,-185,,175,,,,,,175,Poland
1,Karol Prawdzik,M,B,1992-01-01,Raw,M-OR,111.8,125,,,,,,200,205,-210,,205,,,,,,205,Poland
2,Michał Koziatek,M,B,1995-01-09,Raw,M-OR,114.8,125,,,,,,175,182.5,190,,190,,,,,,190,Poland
1,Krzysztof Banaś,M,B,1984-10-18,Raw,M-OR,128.7,140,,,,,,210,-230,-230,,210,,,,,,210,Poland
2,Kamil Puczka,M,B,1996-06-20,Raw,M-OR,127.7,140,,,,,,167.5,175,182.5,,182.5,,,,,,182.5,Poland
3,Marcin Czaja,M,B,1976-04-06,Raw,M-OR,135.7,140,,,,,,165,170,175,,175,,,,,,175,Poland
1,Tomasz Węgliński,M,B,1978-03-06,Raw,M-OR,143.8,140+,,,,,,180,190,-203,,190,,,,,,190,Poland
1,Stanisław Gąsienica-Samek,M,B,1983-04-30,Raw,M-M1R,82,82.5,,,,,,170,175,180,,180,,,,,,180,Poland
DQ,Paweł Kubacki,M,B,1979-01-01,Raw,M-M2R,79.6,82.5,,,,,,-165,-165,-165,,,,,,,,,Poland
1,Sebastian Niedziela,M,B,1979-04-02,Raw,M-M1R,85.5,90,,,,,,170,176,-180,,176,,,,,,176,Poland
2,Marek Tokarski,M,B,1981-08-04,Raw,M-M1R,86.6,90,,,,,,160,167.5,-175,,167.5,,,,,,167.5,Poland
1,Dominik Lowas,M,B,1982-08-07,Raw,M-M1R,102.9,110,,,,,,-110,110,120,,120,,,,,,120,Poland
1,Cezary Urbaniak,M,B,1982-08-08,Raw,M-M1R,120,125,,,,,,190,200,-207.5,,200,,,,,,200,Poland
1,Krzysztof Wieczorek,M,B,1979-01-26,Raw,M-M2R,74.6,75,,,,,,130,-137.5,-137.5,,130,,,,,,130,Poland
1,Juliusz Zbierski,M,B,1974-04-02,Raw,M-M2R,89.3,90,,,,,,150,152.5,-155,,152.5,,,,,,152.5,Poland
1,Krzysztof Zakrzewski,M,B,1977-12-09,Raw,M-M2R,99.7,100,,,,,,205,212.5,-221,,212.5,,,,,,212.5,Poland
2,Marcin Marszałek,M,B,1977-09-22,Raw,M-M2R,92.2,100,,,,,,145,155,160,,160,,,,,,160,Poland
1,Adam Łukomski,M,B,1975-12-15,Raw,M-M2R,106.1,110,,,,,,145,150,160,,160,,,,,,160,Poland
2,Kazimierz Lisowski,M,B,1979-03-03,Raw,M-M2R,108.5,110,,,,,,130,140,145,,145,,,,,,145,Poland
1,Marcin Czaja,M,B,1976-04-06,Raw,M-M2R,135.7,140,,,,,,165,170,175,,175,,,,,,175,Poland
1,Tomasz Węgliński,M,B,1978-03-06,Raw,M-M2R,143.8,140+,,,,,,180,190,-203,,190,,,,,,190,Poland
1,Roch Szumarowski-Plewa,M,B,1973-01-14,Raw,M-M3R,80,82.5,,,,,,120,125,132.5,,132.5,,,,,,132.5,Poland
1,Rafał Jachimiak,M,B,1974-02-17,Raw,M-M3R,88,90,,,,,,90,100,-110,,100,,,,,,100,Poland
1,Hovhannes Yazichyan,M,B,1971-05-08,Raw,M-M3R,96.2,100,,,,,,170,180,185,196,185,,,,,,185,Poland
1,Wojciech Kaliciak,M,B,1971-12-15,Raw,M-M3R,107.4,110,,,,,,140,150,155,,155,,,,,,155,Poland
1,Tomasz Prętkiewicz,M,B,1973-04-09,Raw,M-M3R,121.1,125,,,,,,165,175,-180,,175,,,,,,175,Poland
1,Marek Dawidowicz,M,B,1970-01-26,Raw,M-M3R,136.7,140,,,,,,120,125,130,,130,,,,,,130,Poland
1,Krzysztof Bożyczko-Jałocha,M,B,1965-09-02,Raw,M-M4R,114.4,125,,,,,,200,205,210,215,210,,,,,,210,Poland
1,Marek Strzałkowski,M,B,1959-10-30,Raw,M-M5R,89,90,,,,,,142.5,147.5,150,152.5,150,,,,,,150,Poland
1,Roman Raczykowski,M,B,1962-02-13,Raw,M-M5R,104,110,,,,,,130,135,140,,140,,,,,,140,Poland
1,Zbigniew Cabaj,M,B,1955-04-10,Raw,M-M6R,86.5,90,,,,,,100,110,120,,120,,,,,,120,Poland
1,Ryszard Wilczak,M,B,1955-10-26,Raw,M-M6R,96.1,100,,,,,,125,130,135,,135,,,,,,135,Poland
1,Henryk Świerzy,M,B,1956-03-08,Raw,M-M6R,110.3,125,,,,,,-150,150,-157.5,,150,,,,,,150,Poland
1,Zbigniew Koper,M,B,1953-10-04,Raw,M-M7R,71.8,75,,,,,,92.5,96,100,102,100,,,,,,100,Poland
1,Jozef Matej,M,B,1954-01-21,Raw,M-M7R,99.3,100,,,,,,115,120,-125,,120,,,,,,120,Slovakia
1,Roman Wanot,M,B,1948-05-22,Raw,M-M8R,89.1,90,,,,,,85,-90,-90,,85,,,,,,85,Poland
1,Łukasz Wółkiewicz,M,B,1987-02-14,Raw,Military,75,75,,,,,,155,162.5,-165,,162.5,,,,,,162.5,Poland
1,Stanisław Gąsienica-Samek,M,B,1983-04-30,Raw,Military,82,82.5,,,,,,170,175,180,,180,,,,,,180,Poland
2,Roch Szumarowski-Plewa,M,B,1973-01-14,Raw,Military,80,82.5,,,,,,120,125,132.5,,132.5,,,,,,132.5,Poland
3,Przemysław Kawczyński,M,B,1994-03-27,Raw,Military,81,82.5,,,,,,125,130,-132.5,,130,,,,,,130,Poland
DQ,Paweł Kubacki,M,B,1979-01-01,Raw,Military,79.6,82.5,,,,,,-165,-165,-165,,,,,,,,,Poland
1,Adam Kawka,M,B,1997-06-19,Raw,Military,83.9,90,,,,,,170,180,185,,185,,,,,,185,Poland
1,Andrzej Popowski,M,B,1995-11-05,Raw,Military,97.1,100,,,,,,172.5,177.5,-180,,177.5,,,,,,177.5,Poland
2,Piotr Wocka,M,B,1989-12-25,Raw,Military,92.2,100,,,,,,-165,165,170,,170,,,,,,170,Poland
3,Marcin Marszałek,M,B,1977-09-22,Raw,Military,92.2,100,,,,,,145,155,160,,160,,,,,,160,Poland
4,Konrad Czupryn,M,B,1989-03-15,Raw,Military,97.8,100,,,,,,125,130,135,,135,,,,,,135,Poland
DQ,Michał Perżyło,M,B,1999-05-13,Raw,Military,97.2,100,,,,,,-200,-200,-200,,,,,,,,,Poland
1,Marcin Gołębiewski,M,B,1991-09-03,Raw,Military,109,110,,,,,,205,212.5,220,,220,,,,,,220,Poland
2,Tomasz Basa,M,B,1988-12-02,Raw,Military,105.2,110,,,,,,200,210,-212.5,,210,,,,,,210,Poland
3,Wojciech Dargacz,M,B,1991-08-26,Raw,Military,106.2,110,,,,,,175,-185,-185,,175,,,,,,175,Poland
4,Adam Łukomski,M,B,1975-12-15,Raw,Military,106.1,110,,,,,,145,150,160,,160,,,,,,160,Poland
1,Karol Prawdzik,M,B,1992-01-01,Raw,Military,111.8,125,,,,,,200,205,-210,,205,,,,,,205,Poland
2,Cezary Urbaniak,M,B,1982-08-08,Raw,Military,120,125,,,,,,190,200,-207.5,,200,,,,,,200,Poland
3,Michał Koziatek,M,B,1995-01-09,Raw,Military,114.8,125,,,,,,175,182.5,190,,190,,,,,,190,Poland
1,Krzysztof Banaś,M,B,1984-10-18,Raw,Military,128.7,140,,,,,,210,-230,-230,,210,,,,,,210,Poland
1,Marek Strzałkowski,M,B,1959-10-30,Raw,Para,89,90,,,,,,142.5,147.5,150,152.5,150,,,,,,150,Poland
1,Alicja Jaworska,F,B,2007-12-19,Raw,F-T2R,58.3,60,,,,,,40,45,47.5,50,47.5,,,,,,47.5,Poland
1,Joanna Mosor,F,B,2006-03-25,Raw,F-T2R,80.8,82.5,,,,,,70,73,75,77.5,75,,,,,,75,Poland
1,Anna Kubaszewska,F,B,1995-01-21,Raw,F-OR,56,56,,,,,,70,75,80,85,80,,,,,,80,Poland
2,Patrycja Trynkiewicz,F,B,2000-02-27,Raw,F-OR,55.6,56,,,,,,40,-42.5,42.5,,42.5,,,,,,42.5,Poland
1,Karolina Czuryło,F,B,1996-07-14,Raw,F-OR,72.7,75,,,,,,-90,90,95,,95,,,,,,95,Poland
1,Marta Chachuła,F,B,1987-12-07,Raw,F-OR,79,82.5,,,,,,110,115,-120,,115,,,,,,115,Poland
1,Małgorzata Kopiec,F,B,1985-11-28,Raw,F-OR,86,90,,,,,,165,172.5,177.5,,177.5,,,,,,177.5,Poland
2,Magdalena Ciureja,F,B,1988-08-17,Raw,F-OR,87.4,90,,,,,,70,75,77.5,,77.5,,,,,,77.5,Poland
1,Krystyna Puzio,F,B,1965-04-23,Raw,F-M4R,107,110,,,,,,75,80,82.5,85,82.5,,,,,,82.5,Poland
1,Patrycja Trynkiewicz,F,B,2000-02-27,Raw,Military,55.6,56,,,,,,40,-42.5,42.5,,42.5,,,,,,42.5,Poland
1,Karolina Czuryło,F,B,1996-07-14,Raw,Military,72.7,75,,,,,,-90,90,95,,95,,,,,,95,Poland
1,Anna Kubaszewska,F,B,1995-01-21,Raw,Para,56,56,,,,,,70,75,80,85,80,,,,,,80,Poland
1,Krzysztof Wolszczak,M,B,1985-06-02,Multi-ply,M-OE,74.7,75,,,,,,170,-180,180,,180,,,,,,180,Poland
1,Dawid Deptuch,M,B,1986-11-28,Multi-ply,M-OE,89,90,,,,,,215,-220,220,,220,,,,,,220,Poland
1,Andrzej Popowski,M,B,1995-11-05,Multi-ply,M-OE,97.1,100,,,,,,195,212.5,-225,,212.5,,,,,,212.5,Poland
1,Roch Szumarowski-Plewa,M,B,1973-01-14,Multi-ply,M-M3E,80,82.5,,,,,,120,135,-150,,135,,,,,,135,Poland
1,Stefan Sochaňski,M,B,1948-11-17,Multi-ply,M-M8E,82.2,82.5,,,,,,70,77.5,82.5,,82.5,,,,,,82.5,Poland
1,Roch Szumarowski-Plewa,M,B,1973-01-14,Multi-ply,Military,80,82.5,,,,,,120,135,-150,,135,,,,,,135,Poland
2,Stefan Sochaňski,M,B,1948-11-17,Multi-ply,Military,82.2,82.5,,,,,,70,77.5,82.5,,82.5,,,,,,82.5,Poland
1,Andrzej Popowski,M,B,1995-11-05,Multi-ply,Military,97.1,100,,,,,,195,212.5,-225,,212.5,,,,,,212.5,Poland
1,Maksymilian Lubosik,M,B,1998-09-23,Unlimited,M-OE,78.4,82.5,,,,,,220,-240,-240,,220,,,,,,220,Poland
1,Daniel Kowalczyk,M,B,1977-12-24,Unlimited,M-OE,98,100,,,,,,320,325,330,,330,,,,,,330,Poland
1,Szymon Kudzia,M,B,2008-12-30,Unlimited,M-T1E,89.9,90,,,,,,90,-100,-100,100,90,,,,,,90,Poland
1,Adam Duda,M,B,2006-03-30,Unlimited,M-T2E,82.2,82.5,,,,,,-180,-180,180,200,180,,,,,,180,Poland
1,Kacper Kosiński,M,B,2006-12-13,Unlimited,M-T2E,101,110,,,,,,170,180,190,200,190,,,,,,190,Poland
1,Kacper Łukomski,M,B,2005-12-16,Unlimited,M-T3E,124.7,125,,,,,,180,190,200,,200,,,,,,200,Poland
1,Bogusław Ufir,M,B,1993-02-20,Unlimited,M-OE,72,75,,,,,,230,250,270,,270,,,,,,270,Poland
2,Maksymilian Lubosik,M,B,1998-09-23,Unlimited,M-OE,78.4,82.5,,,,,,-210,210,-220,,210,,,,,,210,Poland
1,Dawid Deptuch,M,B,1986-11-28,Unlimited,M-OE,89,90,,,,,,260,-292.5,292.5,,292.5,,,,,,292.5,Poland
2,Daniel Kowalczyk,M,B,1977-12-24,Unlimited,M-OE,98,100,,,,,,300,320,-340,,320,,,,,,320,Poland
3,Jakub Nolbrzak,M,B,1994-05-23,Unlimited,M-OE,99.5,100,,,,,,220,-240,-240,,220,,,,,,220,Poland
4,Kamil Lipiňski,M,B,1996-03-01,Unlimited,M-OE,98.5,100,,,,,,200,-210,210,,210,,,,,,210,Poland
5,Łukasz Kantor,M,B,1994-12-13,Unlimited,M-OE,97.5,100,,,,,,160,170,-180,,170,,,,,,170,Poland
1,Sebastian Dąbrowski,M,B,1980-07-21,Unlimited,M-OE,101,110,,,,,,340,350,360,,360,,,,,,360,Poland
2,Krystian Fijałkowski,M,B,1992-11-24,Unlimited,M-OE,105.7,110,,,,,,330,350,-360,,350,,,,,,350,Poland
3,Lukasz Kaim,M,B,1988-02-14,Unlimited,M-OE,107,110,,,,,,-320,320,-340,,320,,,,,,320,Poland
4,Tomasz Wyrwisz,M,B,1987-05-03,Unlimited,M-OE,103.8,110,,,,,,300,-325,-325,,300,,,,,,300,Poland
DQ,Arkadiusz Redzynia,M,B,1993-01-14,Unlimited,M-OE,109.4,110,,,,,,-320,-330,-335,,,,,,,,,Poland
1,Sebastian Niedziela,M,B,1979-04-02,Unlimited,M-M1E,85.5,90,,,,,,-230,230,-251,,230,,,,,,230,Poland
1,Edward Homanowski,M,B,1976-01-11,Unlimited,M-M2E,101.45,110,,,,,,220,235,-262.5,,235,,,,,,235,Poland
2,Adam Łukomski,M,B,1975-12-15,Unlimited,M-M2E,106.1,110,,,,,,-180,-180,180,,180,,,,,,180,Poland
1,Adam Szutko,M,B,1978-04-26,Unlimited,M-M2E,115,125,,,,,,-250,250,270,,270,,,,,,270,Poland
1,Franciszek Szabluk,M,B,1956-09-17,Unlimited,M-M6E,99,100,,,,,,-250,-250,250,271,250,,,,,,250,Poland
1,Kamil Lipiňski,M,B,1996-03-01,Unlimited,Military,98.5,100,,,,,,200,-210,210,,210,,,,,,210,Poland
1,Mikołaj Fabiańczyk,M,S,2010-05-21,Wraps,M-T1R,59.7,60,85,90,-100,,90,,,,,,,,,,,90,Poland
1,Antoni Gałązka,M,S,2008-12-27,Wraps,M-T1R,60.3,67.5,-90,90,-100,,90,,,,,,,,,,,90,Poland
1,Daniel Rozwadowski,M,S,2009-01-26,Wraps,M-T1R,88,90,-165,165,-180,,165,,,,,,,,,,,165,Poland
1,Borys Rafalski,M,S,2007-08-05,Wraps,M-T2R,57.5,60,90,100,-110,,100,,,,,,,,,,,100,Poland
1,Szymon Tlock,M,S,2007-03-03,Wraps,M-T2R,72.3,75,175,177.5,185,,185,,,,,,,,,,,185,Poland
1,Kacper Kosiński,M,S,2006-12-13,Wraps,M-T2R,101,110,160,-165,-165,,160,,,,,,,,,,,160,Poland
1,Szymon Skrudlik,M,S,2001-04-07,Wraps,M-JR,68.7,75,150,160,-175.5,,160,,,,,,,,,,,160,Poland
1,Przemysław Kawczyński,M,S,1994-03-27,Wraps,M-OR,81,82.5,210,215,230,,230,,,,,,,,,,,230,Poland
1,Przemysław Kazimierczak,M,S,1993-07-07,Wraps,M-OR,98.8,100,230,245,262.5,283,262.5,,,,,,,,,,,262.5,Poland
2,Konrad Czupryn,M,S,1989-03-15,Wraps,M-OR,97.8,100,160,170,175,,175,,,,,,,,,,,175,Poland
3,Remiljusz Wroński,M,S,1992-10-25,Wraps,M-OR,99.3,100,140,-145,-150,,140,,,,,,,,,,,140,Poland
1,Marek Latała,M,S,1997-10-22,Wraps,M-OR,121,125,-230,230,-250,,230,,,,,,,,,,,230,Poland
1,Marcin Marszałek,M,S,1977-09-22,Wraps,M-M2R,92.2,100,-180,180,-190,,180,,,,,,,,,,,180,Poland
1,Rafał Klauz,M,S,1971-04-16,Wraps,M-M3R,109.9,110,-200,200,-210,,200,,,,,,,,,,,200,Poland
1,Zbigniew Cabaj,M,S,1955-04-10,Wraps,M-M6R,86.5,90,140,150,160,,160,,,,,,,,,,,160,Poland
1,Antoni Kaliňski,M,S,1953-10-01,Wraps,M-M7R,66.6,67.5,-105,-105,105,110,105,,,,,,,,,,,105,Poland
1,Zbigniew Koper,M,S,1953-10-04,Wraps,M-M7R,71.8,75,125,130,135,,135,,,,,,,,,,,135,Poland
1,Przemysław Kawczyński,M,S,1994-03-27,Wraps,Military,81,82.5,210,215,230,,230,,,,,,,,,,,230,Poland
1,Marcin Marszałek,M,S,1977-09-22,Wraps,Military,92.2,100,-180,180,-190,,180,,,,,,,,,,,180,Poland
2,Konrad Czupryn,M,S,1989-03-15,Wraps,Military,97.8,100,160,170,175,,175,,,,,,,,,,,175,Poland
1,Karolilna Mastalerz,F,S,2007-08-23,Wraps,F-T2R,57,60,-85,85,-88,,85,,,,,,,,,,,85,Poland
1,Krystyna Puzio,F,S,1965-04-23,Wraps,F-M4R,107,110,150,160,170,,170,,,,,,,,,,,170,Poland
1,Mikołaj Fabiańczyk,M,D,2010-05-21,Raw,M-T1R,59.7,60,,,,,,,,,,,110,120,-130,,120,120,Poland
1,Jakub Bałek,M,D,2008-09-20,Raw,M-T1R,63,67.5,,,,,,,,,,,110,130,142.5,,142.5,142.5,Poland
2,Antoni Gałązka,M,D,2008-12-27,Raw,M-T1R,60.3,67.5,,,,,,,,,,,120,125,130,,130,130,Poland
1,Jan Haberny,M,D,2008-09-10,Raw,M-T1R,75,75,,,,,,,,,,,115,125,135,,135,135,Poland
1,Filip Legutko,M,D,2008-07-29,Raw,M-T1R,81.6,82.5,,,,,,,,,,,130,150,160,,160,160,Poland
1,Daniel Rozwadowski,M,D,2009-01-26,Raw,M-T1R,88,90,,,,,,,,,,,180,190,195,200,195,195,Poland
1,Borys Rafalski,M,D,2007-08-05,Raw,M-T2R,57.5,60,,,,,,,,,,,125,135,140,,140,140,Poland
1,Dominik Czyszczoń,M,D,2006-08-09,Raw,M-T2R,61.2,67.5,,,,,,,,,,,120,137.5,152.5,,152.5,152.5,Poland
1,Szymon Tlock,M,D,2007-03-03,Raw,M-T2R,72.3,75,,,,,,,,,,,215,222,-230,,222,222,Poland
1,Paweł Lipka,M,D,2006-03-29,Raw,M-T2R,120.5,125,,,,,,,,,,,240,260,-280,,260,260,Poland
1,Arkadiusz Woźniak,M,D,2005-04-05,Raw,M-T3R,67.5,67.5,,,,,,,,,,,165,180.5,-185,,180.5,180.5,Poland
1,Jakub Jarończyk,M,D,2005-10-24,Raw,M-T3R,96,100,,,,,,,,,,,245,-255,-255,,245,245,Poland
2,Bartlomiej Petk,M,D,2005-02-20,Raw,M-T3R,97.4,100,,,,,,,,,,,200,215,225,,225,225,Poland
1,Szymon Skrudlik,M,D,2001-04-07,Raw,M-JR,68.7,75,,,,,,,,,,,150,165,177.5,,177.5,177.5,Poland
1,Konrad Misieczko,M,D,1996-07-14,Raw,M-OR,88.2,90,,,,,,,,,,,220,235,245,,245,245,Poland
2,Edward Rożnowski,M,D,1951-03-18,Raw,M-OR,84.2,90,,,,,,,,,,,185,205,215,,215,215,Poland
1,Przemysław Kazimierczak,M,D,1993-07-07,Raw,M-OR,98.8,100,,,,,,,,,,,250,265,-275,,265,265,Poland
2,Grzegorz Drewniany,M,D,1977-03-20,Raw,M-OR,99.9,100,,,,,,,,,,,230,-250,,,230,230,Poland
3,Konrad Czupryn,M,D,1989-03-15,Raw,M-OR,97.8,100,,,,,,,,,,,205,215,225,,225,225,Poland
4,Remiliusz Wroński,M,D,1992-10-25,Raw,M-OR,99.3,100,,,,,,,,,,,210,220,-225,,220,220,Poland
1,Mariusz Bartołowicz,M,D,1979-12-10,Raw,M-OR,108.6,110,,,,,,,,,,,275,290,-300,,290,290,Poland
2,Jacek Miarka,M,D,1983-03-23,Raw,M-OR,102.1,110,,,,,,,,,,,-220,220,,,220,220,Poland
1,Karol Prawdzik,M,D,1992-01-01,Raw,M-OR,111.8,125,,,,,,,,,,,270,280,285,,285,285,Poland
2,Marek Latała,M,D,1997-10-22,Raw,M-OR,121,125,,,,,,,,,,,240,250,260,,260,260,Poland
3,Krzysztof Grzemiński,M,D,1987-03-26,Raw,M-OR,118.8,125,,,,,,,,,,,220,240,-250,,240,240,Poland
1,Szymon Wójtowicz,M,D,1994-11-08,Raw,M-OR,151.3,140+,,,,,,,,,,,310,330,350,,350,350,Poland
1,Mariusz Bartołowicz,M,D,1979-12-10,Raw,M-M1R,108.6,110,,,,,,,,,,,275,290,-300,,290,290,Poland
2,Jacek Miarka,M,D,1983-03-23,Raw,M-M1R,102.1,110,,,,,,,,,,,-220,220,,,220,220,Poland
1,Grzegorz Drewniany,M,D,1977-03-20,Raw,M-M2R,99.9,100,,,,,,,,,,,230,-250,,,230,230,Poland
2,Vadym Kotsaga,M,D,1977-04-29,Raw,M-M2R,94.3,100,,,,,,,,,,,185,195,205,212.5,205,205,Ukraine
1,Rafał Klauz,M,D,1971-04-16,Raw,M-M3R,109.9,110,,,,,,,,,,,215,-230,,,215,215,Poland
1,Robert Nemś,M,D,1969-06-15,Raw,M-M3R,119.7,125,,,,,,,,,,,250,260,,,260,260,Poland
1,Zbigniew Cabaj,M,D,1955-04-10,Raw,M-M6R,86.5,90,,,,,,,,,,,170,190,200,,200,200,Poland
DQ,Antoni Kaliňski,M,D,1953-10-01,Raw,M-M7R,66.6,67.5,,,,,,,,,,,-105,,,,,,Poland
1,Zbigniew Koper,M,D,1953-10-04,Raw,M-M7R,71.8,75,,,,,,,,,,,140,145,150,,150,150,Poland
2,Ryszard Śliwiński,M,D,1950-01-22,Raw,M-M7R,75,75,,,,,,,,,,,-120,120,130,,130,130,Poland
1,Józef Bejgrowicz,M,D,1952-09-24,Raw,M-M7R,80,82.5,,,,,,,,,,,200,210,-218.5,,210,210,Poland
1,Edward Rożnowski,M,D,1951-03-18,Raw,M-M7R,84.2,90,,,,,,,,,,,185,205,215,,215,215,Poland
1,Stefan Sochaňski,M,D,1948-11-17,Raw,M-M8R,82.5,82.5,,,,,,,,,,,150,165,-175,,165,165,Poland
1,Arkadiusz Woźniak,M,D,2005-04-05,Raw,Military,67.5,67.5,,,,,,,,,,,165,180.5,-185,,180.5,180.5,Poland
1,Przemysław Kawczyński,M,D,1994-03-27,Raw,Military,81,82.5,,,,,,,,,,,250,265,271,275,271,271,Poland
2,Stefan Sochaňski,M,D,1948-11-17,Raw,Military,82.5,82.5,,,,,,,,,,,150,165,-175,,165,165,Poland
1,Konrad Czupryn,M,D,1989-03-15,Raw,Military,97.8,100,,,,,,,,,,,205,215,225,,225,225,Poland
1,Mariusz Bartołowicz,M,D,1979-12-10,Raw,Military,108.6,110,,,,,,,,,,,275,290,-300,,290,290,Poland
2,Milosz Krzyzewski,M,D,1998-02-28,Raw,Military,110,110,,,,,,,,,,,270,280,-292.5,,280,280,Poland
1,Michał Koziatek,M,D,1995-01-09,Raw,Military,114.8,125,,,,,,,,,,,260,272.5,287.5,,287.5,287.5,Poland
2,Karol Prawdzik,M,D,1992-01-01,Raw,Military,111.8,125,,,,,,,,,,,270,280,285,,285,285,Poland
3,Krzysztof Grzemiński,M,D,1987-03-26,Raw,Military,118.8,125,,,,,,,,,,,220,240,-250,,240,240,Poland
1,Gabriela Hatlas,F,D,2008-06-30,Raw,F-T1R,45,48,,,,,,,,,,,80,90,-92.5,,90,90,Poland
1,Aleksandra Jarończyk,F,D,2008-02-18,Raw,F-T2R,51.5,52,,,,,,,,,,,95,105,112.5,,112.5,112.5,Poland
1,Marta Olek,F,D,2006-12-08,Raw,F-T2R,55.5,56,,,,,,,,,,,80,85,90,,90,90,Poland
1,Joanna Mosor,F,D,2006-03-25,Raw,F-T2R,80.8,82.5,,,,,,,,,,,135,141,150,152.5,150,150,Poland
1,Magdalena Ciureja,F,D,1988-08-17,Raw,F-OR,87.4,90,,,,,,,,,,,120,127.5,131,132.5,131,131,Poland
